Python 3.3.2 (v3.3.2:d047928ae3f6, May 16 2013, 00:06:53) [MSC v.1600 64 bit (AMD64)] on win32
Type "copyright", "credits" or "license()" for more information.
>>> ================================ RESTART ================================
>>> 
Frames, frameLength MIN:  4.2134e-08
Frames, frameLength MAX:  92.34950891682
Frames, frameLength AVG:  0.20856485156353757
>>> ================================ RESTART ================================
>>> 
Frames, frameLength MIN:  7.716e-09
Frames, frameLength MAX:  92.15020744671
Frames, frameLength AVG:  0.03680190765759107
>>> 