(1) - 12.88਍⠀㈀⤀ ⴀ ㄀㈀⸀㔀　㄀ഀഀ
(3) - 8.778਍⠀㐀⤀ ⴀ ㄀　⸀㔀㜀㜀ഀഀ
(5) - 9.433਍⠀㘀⤀ ⴀ ㄀　⸀㔀㈀㜀ഀഀ
(7) - 8.848਍⠀㠀⤀ ⴀ ㄀　⸀㄀㐀㔀ഀഀ
(9) - 8.984਍⠀㄀　⤀ ⴀ 㠀⸀㈀㔀㘀ഀഀ
(11) - 9.576਍⠀㄀㈀⤀ ⴀ 㠀⸀㜀㔀㄀ഀഀ
(13) - 8.566਍⠀㄀㐀⤀ ⴀ 㠀⸀㠀㐀㈀ഀഀ
(15) - 8.349਍⠀㄀㘀⤀ ⴀ 㤀⸀㈀㌀㘀ഀഀ
(17) - 7.491਍⠀㄀㠀⤀ ⴀ 㤀⸀㄀㄀㜀ഀഀ
(19) - 8.998਍⠀㈀　⤀ ⴀ 㜀⸀㐀ഀഀ
(21) - 9.721਍⠀㈀㈀⤀ ⴀ 㠀⸀㔀㌀㔀ഀഀ
Total Run-time = 185.231਍䄀瘀攀爀愀最攀 刀甀渀ⴀ琀椀洀攀 㴀 㤀⸀㈀㘀㄀㔀㔀ഀഀ
Excluded Lowest = 7.4 (20) ਍䔀砀挀氀甀搀攀搀 䠀椀最栀攀猀琀 㴀 ㄀㈀⸀㠀㠀 ⠀㄀⤀ഀഀ
SD Sum = 21.94561895਍匀䐀 㴀 ㄀⸀　㐀㜀㔀㄀㄀㜀㠀㠀㜀㄀㘀㐀㠀ഀഀ
